Individual Household Electric Power Consumption
…
# Check for parsing problems
parsing_issues <- problems(data)
print(parsing_issues)

# A tibble: 155,874 × 5
     row   col expected actual file                                             
   <int> <int> <chr>    <chr>  <chr>                                            
 1  6841     3 a double ?      C:/Users/User/Documents/2 - Coursera/Josh Hopkin…
 2  6841     4 a double ?      C:/Users/User/Documents/2 - Coursera/Josh Hopkin…
 3  6841     5 a double ?      C:/Users/User/Documents/2 - Coursera/Josh Hopkin…
 4  6841     6 a double ?      C:/Users/User/Documents/2 - Coursera/Josh Hopkin…
 5  6841     7 a double ?      C:/Users/User/Documents/2 - Coursera/Josh Hopkin…
 6  6841     8 a double ?      C:/Users/User/Documents/2 - Coursera/Josh Hopkin…
 7  6842     3 a double ?      C:/Users/User/Documents/2 - Coursera/Josh Hopkin…
 8  6842     4 a double ?      C:/Users/User/Documents/2 - Coursera/Josh Hopkin…
 9  6842     5 a double ?      C:/Users/User/Documents/2 - Coursera/Josh Hopkin…
10  6842     6 a double ?      C:/Users/User/Documents/2 - Coursera/Josh Hopkin…
# ℹ 155,864 more rows
…
